{
	"parent": "block/cube_bottom_top",
    "textures": {
        "side": "tardis:block/roundels/roundel_quartz_block",
        "top":"tardis:block/roundels/roundel_quartz_block_bottom",
        "bottom":"tardis:block/roundels/roundel_quartz_block_bottom"
    }
}