{
	"variants":{
		"facing=north,up=true":{
			"model":"tardis:block/steam_grate",
			"y": 0,
			"x": 180
		},
		"facing=north,up=false":{
			"model":"tardis:block/steam_grate",
			"y": 0
		},
		"facing=east,up=true":{
			"model":"tardis:block/steam_grate",
			"y": 90,
			"x": 180
		},
		"facing=east,up=false":{
			"model":"tardis:block/steam_grate",
			"y": 90
		},
		"facing=south,up=true":{
			"model":"tardis:block/steam_grate",
			"y": 180,
			"x": 180
		},
		"facing=south,up=false":{
			"model":"tardis:block/steam_grate",
			"y": 180
		},
		"facing=west,up=true":{
			"model":"tardis:block/steam_grate",
			"y": 270,
			"x": 180
		},
		"facing=west,up=false":{
			"model":"tardis:block/steam_grate",
			"y": 270
		}
	}
}