{
	"type": "tardis:quantiscope",
	"repair":false,
	"ingredients":[
		{"item":"minecraft:iron_nugget"},
		{"item":"minecraft:iron_nugget"},
		{"item":"minecraft:iron_nugget"}
	],
	"result":{
		"item":"tardis:sonic_end"
	}
}