{
    "type": "normal",
	"text": "Stabilizers. By default, the Tardis can only fly in Unstabilized Flight. This circuit allows the Tardis to be able to fly in Stabilized Flight. You can toggle between the two flight modes by using the Stabilizer Control"
}